[gd_resource type="ShaderMaterial" load_steps=2 format=2]

[ext_resource path="res://shaders/tiles/grid.shader" type="Shader" id=1]

[resource]
shader = ExtResource( 1 )
shader_param/color = Color( 1, 0.972549, 0.878431, 0.247059 )
