{
    "gd": {
        "actorName": ""
    },
    "cs": {
        "attack": 5,
        "attackRange": 1,
        "attackType": 0,
        "defense": 1,
        "isGangLeader": 0,
        "maxEndurance": 10,
        "endurance": 10,
        "maxEnergy": 10,
        "energy": 10,
        "movementRange": 4,
        "push": 4,
        "steadiness": 1,
        "turnRate": 3,
        "turnOrder": 3
    },
    "alliances": {
        "gang": 3,
        "enemies": [
            0,
            2,
            4,
            5
        ],
        "rivals": [],
        "neutrals": [],
        "allies": [],
        "targetOf": []
    },
    "portraits": {},
    "skills": {
        "attributeSkills": null,
        "attackSkill": null,
        "pushSkill": null,
        "actionSkill": null
    }
}